<?xml version="1.0" encoding="utf-8"?>
<!-- Generator: Adobe Illustrator 15.0.2, SVG Export Plug-In . SVG Version: 6.00 Build 0)  -->
<!DOCTYPE svg PUBLIC "-//W3C//DTD SVG 1.1//EN" "http://www.w3.org/Graphics/SVG/1.1/DTD/svg11.dtd">
<svg version="1.1" id="Layer_1" xmlns="http://www.w3.org/2000/svg" xmlns:xlink="http://www.w3.org/1999/xlink" x="0px" y="0px"
	 width="30px" height="30px" viewBox="0 0 30 30" enable-background="new 0 0 30 30" xml:space="preserve">
<g>
	<path fill="#2372BA" d="M30,30H0V0h30V30 M2.882,26.981h24.233V3.018H2.882"/>
	<polyline fill="#2372BA" points="2.196,1.617 28.779,1.617 28.779,27.906 2.196,27.906 2.196,1.617 	"/>
	<polyline fill="#FFFFFF" points="25.311,8.975 20.924,22.916 17.283,22.916 14.782,14.837 12.155,22.916 8.524,22.916 4.431,8.975 
		8.161,8.975 10.545,17.982 13.451,8.975 16.287,8.975 18.992,17.982 21.587,8.975 25.311,8.975 	"/>
</g>
</svg>
